annotated-types==0.6.0
anyio==4.3.0
certifi==2024.2.2
cffi==1.16.0
click==8.1.7
colorama==0.4.6
cryptography==42.0.6
dnspython==2.6.1
email_validator==2.1.1
fastapi==0.111.0
fastapi-cli==0.0.2
field==0.2.0
greenlet==3.0.3
h11==0.14.0
httpcore==1.0.5
httptools==0.6.1
httpx==0.27.0
idna==3.7
Jinja2==3.1.4
jwt==1.3.1
markdown-it-py==3.0.0
MarkupSafe==2.1.5
mdurl==0.1.2
orjson==3.10.3
pycparser==2.22
pydantic==2.7.1
pydantic_core==2.18.2
Pygments==2.18.0
PyJWT==2.8.0
python-dotenv==1.0.1
python-multipart==0.0.9
PyYAML==6.0.1
rich==13.7.1
shellingham==1.5.4
sniffio==1.3.1
SQLAlchemy==2.0.30
starlette==0.37.2
typer==0.12.3
typing_extensions==4.11.0
ujson==5.9.0
uvicorn==0.29.0
watchfiles==0.21.0
websockets==12.0
